{
    "mode": "dev",
    "mqtt": {
        "options": {
            "host": "9baf5db4266946baa5180e1a8c3f1033.s2.eu.hivemq.cloud",
            "port": "8883",
            "protocol": "mqtts",
            "username": "livingroom-TV",
            "password": "Urgo1995!",
            "will": {
                "topic": "STATUS/IN222/PC",
                "payload": "{\"state\": \"offline\"}",
                "retain": true
            }
        }
    },
    "topics": [
        {
            "topicName": "CONTROL/IN222/PC",
            "protocol": "Windows",
            "target": "bat",
            "ip": [],
            "port": "24567"
        }
    ]
}